<svg xmlns="http://www.w3.org/2000/svg" version="1.1" class="filters">
    <defs>
        <filter id="blur">
            <feGaussianBlur in="SourceGraphic" stdDeviation="0,0" />
        </filter>
    </defs>
</svg>